import java.util.Scanner;

class main {
    public static void main(String[] args) {
        Scanner scanner = new Scanner(System.in);
        System.out.println("let I take..."); // вывод начала программы
        int result = 0;// целочисленная переменная - счетчик количества простых чисел
        int i = 1; // для зацикливания программы, внизу добавлен i++
        while (i > 0) {
            int number = scanner.nextInt(); // ввод первого числа
            if (number > 0) { // если число положительное
                boolean isPrime = true; //переменная истинности boolean isPrime,
                // значение истина или ложь, по умолчанию false
                int digitsSum = 0; // сумме чисел присваиваем значения "нуль"
                while (number != 0) { // если введённое число не равно "нуль", то...
                    digitsSum = digitsSum + number % 10; // сумме цифр введенного числа присваеваем значение
                    // "сумма чисел плюс остаток дления числа на 10"
                    // оператор % делит левый операнд на правый и возвращает остаток
                    number = number / 10;// пока число не стало нулем -- делим его на 10,
                    // возьмем для примера число 135
                    // digitSum = 0 (так как мы присвоили ему значение 0 на 14 срочке)
                    // + number % 10, что есть остаток 135 от деления на 10 (135/10 = 13 целых и 5 в остатке)
                    // и возращаем остаток 5. Целочисленная переменная number получает значние number/10 и возвращает,
                    // соответственно, целое число -- 13, далее берем сумму 5 и остаток от деления 13 на 10, что равно 3
                    //получается 5+3...
                    // от 135 остается первое число 1 -- 1/10 что дает 0 целого числа и 1 в остатке, итого
                    //digitsSum=5+3+1, т.е. digitsSum = 8. Сумма числа 135 = сумма остатков деления на 10
                    // 135,0 + 13,5 + 1,3 + 0,1 = 0+5+3+1 = 9
                }

                System.out.println("The sum of choosen number is " + digitsSum); // выводим сумму цифр числа digitsSum

                if (digitsSum == 2 | digitsSum == 3) {
                    System.out.println("The choosen number is PRIME");
                } // если digitsSum строго равно двум или трем, то выводим The choosen number is PRIME

                int x = 2;  // вводим целочисленную переменную х и присваиваем ей зачение 2
                // для сокращения итераций и потому что число может делиться помимо себя и 1 (простое число)
                // на другие числа, если делится на 2 и так далее, то это не простое число,
                // х это делитель
                int iterations = 0; // целочисленная переменная iterations, присваиваем ей значение 0
                while ((x * x) <= digitsSum) { //пока квадрат числа х, то есть 4 меньше или равен сумме числа, например,
                    // 135 имеет сумму составляещих его цифр 9. 4 меньше 9, значит
                    if (digitsSum % x == 0) { // если возвращаемый остаток деления суммы цифр числа (9) на х(2) равен 0,
                        isPrime = false;      // то число не простое, при делении 9 на 2 -> 9/2 = целое 4 и остаток 5
                        break;                // выход из цикла и переход на 44 строчку (где х будет равен 3 и число
                        // 9 будет делиться на 3 без остатка
                        //выход из цикла
                    }
                    x++;                      // увеличиваем х равный 2 на на 1 и х равен 3
                    iterations++;             // счетчки итераций равный 0 теперь равен 1
                }

                if (isPrime) { // если переменная истинности boolean isPrime имеет значение true, то печатем
                    System.out.println("The choosen number is PRIME"); // The choosen number is PRIME
                    result++;//увеличиваем счетчик простых чисел
                } else { // в ином случае выводим
                    System.out.println("The choosen number is NOT PRIME"); // The choosen number is NOT PRIME
                }

                System.out.println("ITERATIONS: " + iterations); // выводим счетчик итераций
                System.out.println("Quantity of prime numbers is: " + result);// выводим количество простых чисел

            }
            if (number == -1) { //если ввели число -1, то система выходит и программы
                System.out.println("Incorrect number");
                System.exit(255);
            }

        }
        i++;//увеличиваем i на плюс один для того, чтобы ввести новое число

    }

}